{
  "experiences": [
    {
      "client":"digital universe",
      "position": "FrontEnd Developer",
      "period": "February 2022 - Present",
      "workType": "Remote",
      "description": "",
      "usedSkills": [
        {
          "title": "HTML"
        },
        {
          "title": "CSS"
        },
        {
          "title": "SCSS"
        },
        {
          "title": "JAVA SCRIPT"
        },
        {
          "title": "TYPE SCRIPT"
        },
        {
          "title": "REACTJS"
        },
        {
          "title": "ANGULAR"
        }
      ]
    },
    {
      "client":"digital universe",
      "position": "Mobile Developer",
      "period": "February 2023 - Present",
      "workType": "Remote",
      "description": "",
      "usedSkills": [
        {
          "title": "FLUTTER"
        }
      ]
    },
    {
      "client":"freelance",
      "position": "FrontEnd Developer",
      "period": "2022 - Present",
      "workType": "Remote",
      "description": "",
      "usedSkills": [
        {
          "title": "HTML"
        },
        {
          "title": "CSS"
        },
        {
          "title": "SCSS"
        },
        {
          "title": "JAVA SCRIPT"
        },
        {
          "title": "TYPE SCRIPT"
        },
        {
          "title": "REACTJS"
        },
        {
          "title": "NEXTJS"
        },
        {
          "title": "ANGULAR"
        }
      ]
    }
  ]
}
