{
  "skills":[
    {
      "title": "Frontend",
      "skills": [
        {
          "name":"HTML",
          "color": "237, 89, 0",
          "icon": "/assets/skills/html.svg"
        },
        {
          "name":"CSS",
          "color": "3, 155, 229",
          "icon": "/assets/skills/css3.svg"
        },
        {
          "name":"SASS",
          "color": "240, 98, 146",
          "icon": "/assets/skills/sass.svg"
        },
        {
          "name":"JavaScript",
          "color": "255, 214, 0",
          "icon": "/assets/skills/javascript.svg"
        },
        {
          "name":"TypeScript",
          "color": "25, 118, 210",
          "icon": "/assets/skills/typescript.svg"
        },
        {
          "name":"ReactJs",
          "color": "128, 222, 234",
          "icon": "/assets/skills/react-native.svg"
        },
        {
          "name":"NextJs",
          "color": "112, 112, 112",
          "icon": "/assets/skills/next.svg"
        },
        {
          "name":"ReduxJs",
          "color": "126, 87, 194",
          "icon": "/assets/skills/redux.svg"
        },
        {
          "name":"MUI",
          "color": "0, 176, 255",
          "icon": "/assets/skills/mui.svg"
        },
        {
          "name":"Angular",
          "color": "226, 50, 55",
          "icon": "/assets/skills/angular.svg"
        },
        {
          "name":"Angular Material",
          "color": "255, 167, 38",
          "icon": "/assets/skills/material.svg"
        }
      ]
    },
    {
      "title": "Mobile",
      "skills": [
        {
          "name":"Flutter",
          "color": "1, 87, 155",
          "icon": "/assets/skills/flutter.svg"
        },
        {
          "name":"React Native",
          "color": "128, 222, 234",
          "icon": "/assets/skills/react-native.svg"
        }
      ]
    },
    {
      "title": "Tools",
      "skills": [
        {
          "name":"Git",
          "color": "244, 81, 30",
          "icon": "/assets/skills/git.svg"
        },
        {
          "name":"Firebase",
          "color": "254, 185, 0",
          "icon": "/assets/skills/firebase.svg"
        },
        {
          "name":"Figma",
          "color": "255, 112, 67",
          "icon": "/assets/skills/figma.svg"
        },
        {
          "name":"Adobe xd",
          "color": "254, 64, 199",
          "icon": "/assets/skills/xd.svg"
        }
      ]
    }
  ]

}
